…
    n = flights %>% 
      group_by(origin, year, month, day) %>% 
      count()
    performance = flights %>% 
      group_by(origin, year, month, day) %>% 
      filter(!is.na(dep_delay), dep_delay<60) %>% 
      count() %>%   
      left_join(n, by = c("origin","year","month","day"), suffix = c("_Less60Delay", "_Total")) %>% 
      mutate(performance = n_Less60Delay/n_Total)
    performance

    ## # A tibble: 1,095 x 7
    ## # Groups:   origin, year, month, day [1,095]
    ##    origin  year month   day n_Less60Delay n_Total performance
    ##    <chr>  <int> <int> <int>         <int>   <int>       <dbl>
    ##  1 EWR     2013     1     1           279     305       0.915
    ##  2 EWR     2013     1     2           288     350       0.823
    ##  3 EWR     2013     1     3           326     336       0.970
    ##  4 EWR     2013     1     4           315     339       0.929
    ##  5 EWR     2013     1     5           229     238       0.962
    ##  6 EWR     2013     1     6           285     301       0.947
    ##  7 EWR     2013     1     7           315     342       0.921
    ##  8 EWR     2013     1     8           326     334       0.976
    ##  9 EWR     2013     1     9           327     336       0.973
    ## 10 EWR     2013     1    10           336     344       0.977
    ## # ... with 1,085 more rows

Construct a tidy data set to that give weather summaries for each
(airport, day). Use the total precipitation, minimum visibility, maximum
wind\_gust, and average wind\_speed.

    weather_summary = weather %>% 
      group_by(origin, year, month, day) %>% 
      summarise(TotalPrecip = sum(precip, na.rm = T),
                MinVisb = min(visib, na.rm = T),
                AvgWindSpeed = mean(wind_speed, na.rm = T))
    weather_summary

    ## # A tibble: 1,092 x 7
    ## # Groups:   origin, year, month [36]
    ##    origin  year month   day TotalPrecip MinVisb AvgWindSpeed
    ##    <chr>  <int> <int> <int>       <dbl>   <dbl>        <dbl>
    ##  1 EWR     2013     1     1           0      10        13.2 
    ##  2 EWR     2013     1     2           0      10        10.9 
    ##  3 EWR     2013     1     3           0      10         8.58
    ##  4 EWR     2013     1     4           0      10        14.0 
    ##  5 EWR     2013     1     5           0      10         9.40
    ##  6 EWR     2013     1     6           0       6         9.11
    ##  7 EWR     2013     1     7           0      10         7.34
    ##  8 EWR     2013     1     8           0       8         7.19
    ##  9 EWR     2013     1     9           0       6         5.99
    ## 10 EWR     2013     1    10           0      10         8.92
    ## # ... with 1,082 more rows
…
